C:\Users\karad\Desktop\FER\5.Semestar\Programsko Inženjerstvo\MirkoISlavko\projekt\projekt\src\main\java\MirkoISlavko\projekt\service\AdminServiceImpl.java
C:\Users\karad\Desktop\FER\5.Semestar\Programsko Inženjerstvo\MirkoISlavko\projekt\projekt\src\main\java\MirkoISlavko\projekt\repo\SalterRepository.java
C:\Users\karad\Desktop\FER\5.Semestar\Programsko Inženjerstvo\MirkoISlavko\projekt\projekt\src\main\java\MirkoISlavko\projekt\service\EntityMissingException.java
C:\Users\karad\Desktop\FER\5.Semestar\Programsko Inženjerstvo\MirkoISlavko\projekt\projekt\src\main\java\MirkoISlavko\projekt\domain\Djelatnik.java
C:\Users\karad\Desktop\FER\5.Semestar\Programsko Inženjerstvo\MirkoISlavko\projekt\projekt\src\main\java\MirkoISlavko\projekt\domain\Klijent.java
C:\Users\karad\Desktop\FER\5.Semestar\Programsko Inženjerstvo\MirkoISlavko\projekt\projekt\src\main\java\MirkoISlavko\projekt\domain\Administrator.java
C:\Users\karad\Desktop\FER\5.Semestar\Programsko Inženjerstvo\MirkoISlavko\projekt\projekt\src\main\java\MirkoISlavko\projekt\domain\Salter.java
C:\Users\karad\Desktop\FER\5.Semestar\Programsko Inženjerstvo\MirkoISlavko\projekt\projekt\src\main\java\MirkoISlavko\projekt\domain\Radina.java
C:\Users\karad\Desktop\FER\5.Semestar\Programsko Inženjerstvo\MirkoISlavko\projekt\projekt\src\main\java\MirkoISlavko\projekt\ProjektApplication.java
C:\Users\karad\Desktop\FER\5.Semestar\Programsko Inženjerstvo\MirkoISlavko\projekt\projekt\src\main\java\MirkoISlavko\projekt\service\AdminService.java
C:\Users\karad\Desktop\FER\5.Semestar\Programsko Inženjerstvo\MirkoISlavko\projekt\projekt\src\main\java\MirkoISlavko\projekt\repo\AdministratorRepositoyImpl.java
C:\Users\karad\Desktop\FER\5.Semestar\Programsko Inženjerstvo\MirkoISlavko\projekt\projekt\src\main\java\MirkoISlavko\projekt\repo\AdministratorRepository.java
C:\Users\karad\Desktop\FER\5.Semestar\Programsko Inženjerstvo\MirkoISlavko\projekt\projekt\src\main\java\MirkoISlavko\projekt\domain\RadinaId.java
C:\Users\karad\Desktop\FER\5.Semestar\Programsko Inženjerstvo\MirkoISlavko\projekt\projekt\src\main\java\MirkoISlavko\projekt\exceptions\AuthException.java
C:\Users\karad\Desktop\FER\5.Semestar\Programsko Inženjerstvo\MirkoISlavko\projekt\projekt\src\main\java\MirkoISlavko\projekt\service\impl\DjelatnikServiceImpl.java
C:\Users\karad\Desktop\FER\5.Semestar\Programsko Inženjerstvo\MirkoISlavko\projekt\projekt\src\main\java\MirkoISlavko\projekt\repo\DjelatnikRepository.java
C:\Users\karad\Desktop\FER\5.Semestar\Programsko Inženjerstvo\MirkoISlavko\projekt\projekt\src\main\java\MirkoISlavko\projekt\repo\DjelatnikRepositoryImpl.java
C:\Users\karad\Desktop\FER\5.Semestar\Programsko Inženjerstvo\MirkoISlavko\projekt\projekt\src\main\java\MirkoISlavko\projekt\repo\OdjelRepository.java
C:\Users\karad\Desktop\FER\5.Semestar\Programsko Inženjerstvo\MirkoISlavko\projekt\projekt\src\main\java\MirkoISlavko\projekt\domain\Odjel.java
C:\Users\karad\Desktop\FER\5.Semestar\Programsko Inženjerstvo\MirkoISlavko\projekt\projekt\src\main\java\MirkoISlavko\projekt\service\DjelatnikService.java
